INDEX VERSION 1.3+C:\Fsd56\student\AdavnceStudent\.metadata\.plugins\org.eclipse.wst.jsdt.core\indexes
1109590818.index
1003266325.index
3601021630.index
2208864796.index
304679872.index
475735551.index
